MemTotal:        3844428 kB
MemFree:         2411972 kB
Buffers:           65612 kB
Cached:           743288 kB
SwapCached:            0 kB
Active:           608360 kB
Inactive:         671892 kB
Active(anon):     472300 kB
Inactive(anon):   234128 kB
Active(file):     136060 kB
Inactive(file):   437764 kB
Unevictable:           0 kB
Mlocked:               0 kB
SwapTotal:       3879932 kB
SwapFree:        3879932 kB
Dirty:                48 kB
Writeback:             0 kB
AnonPages:        471356 kB
Mapped:           116856 kB
Shmem:            235072 kB
Slab:              66460 kB
SReclaimable:      40520 kB
SUnreclaim:        25940 kB
KernelStack:        3112 kB
PageTables:        26312 kB
NFS_Unstable:          0 kB
Bounce:                0 kB
WritebackTmp:          0 kB
CommitLimit:     5802144 kB
Committed_AS:    2758760 kB
VmallocTotal:   34359738367 kB
VmallocUsed:      359884 kB
VmallocChunk:   34359364456 kB
HardwareCorrupted:     0 kB
AnonHugePages:         0 kB
HugePages_Total:       0
HugePages_Free:        0
HugePages_Rsvd:        0
HugePages_Surp:        0
Hugepagesize:       2048 kB
DirectMap4k:       61820 kB
DirectMap2M:     3926016 kB
